…
  return(reviews)
}

base_url = "https://www.amazon.com/product-reviews/B00005JNBQ/ref=cm_cr_arp_d_viewopt_rvwer?ie=UTF8&reviewerType=avp_only_reviews&sortBy=recent&pageNumber="
urls = str_c(base_url, 1:5)

bind_rows(
  get_page_reviews(urls[1]),
  get_page_reviews(urls[2]),
  get_page_reviews(urls[3]),
  get_page_reviews(urls[4]),
  get_page_reviews(urls[5]))
```

    ## # A tibble: 50 × 3
    ##    title                                                 stars   text           
    ##    <chr>                                                 <chr>   <chr>          
    ##  1 it was                                                5.0 ou… "\n  mad good …
    ##  2 Fun!                                                  4.0 ou… "\n  Fun and e…
    ##  3 Vintage                                               5.0 ou… "\n  Easy to o…
    ##  4 too many commercials                                  1.0 ou… "\n  5 minutes…
    ##  5 this film is so good!                                 5.0 ou… "\n  VOTE FOR …
    ##  6 Good movie                                            5.0 ou… "\n  Weird sto…
    ##  7 I Just everyone to know this....                      5.0 ou… "\n  VOTE FOR …
    ##  8 the cobweb in his hair during the bike ramp scene lol 5.0 ou… "\n  5 stars f…
    ##  9 Best quirky movie ever                                5.0 ou… "\n  You all k…
    ## 10 Classic Film                                          5.0 ou… "\n  Had to or…
    ## # … with 40 more rows
…
    ## using cached file: ~/Library/Caches/R/noaa_ghcnd/USS0023B17S.dly

    ## date created (size, mb): 2021-10-05 10:29:32 (0.912)

    ## file min/max dates: 1999-09-01 / 2021-09-30

Nest data within location

``` r
weather_nested = nest(weather_df, data = date:tmin)

unnest(weather_nested, data)
```

    ## # A tibble: 1,095 × 6
    ##    name           id          date        prcp  tmax  tmin
    ##    <chr>          <chr>       <date>     <dbl> <dbl> <dbl>
    ##  1 CentralPark_NY USW00094728 2017-01-01     0   8.9   4.4
    ##  2 CentralPark_NY USW00094728 2017-01-02    53   5     2.8
    ##  3 CentralPark_NY USW00094728 2017-01-03   147   6.1   3.9
    ##  4 CentralPark_NY USW00094728 2017-01-04     0  11.1   1.1
    ##  5 CentralPark_NY USW00094728 2017-01-05     0   1.1  -2.7
    ##  6 CentralPark_NY USW00094728 2017-01-06    13   0.6  -3.8
    ##  7 CentralPark_NY USW00094728 2017-01-07    81  -3.2  -6.6
    ##  8 CentralPark_NY USW00094728 2017-01-08     0  -3.8  -8.8
    ##  9 CentralPark_NY USW00094728 2017-01-09     0  -4.9  -9.9
    ## 10 CentralPark_NY USW00094728 2017-01-10     0   7.8  -6  
    ## # … with 1,085 more rows

``` r
weather_nested %>% pull(data)
```

    ## [[1]]
    ## # A tibble: 365 × 4
    ##    date        prcp  tmax  tmin
    ##    <date>     <dbl> <dbl> <dbl>
    ##  1 2017-01-01     0   8.9   4.4
    ##  2 2017-01-02    53   5     2.8
    ##  3 2017-01-03   147   6.1   3.9
    ##  4 2017-01-04     0  11.1   1.1
    ##  5 2017-01-05     0   1.1  -2.7
    ##  6 2017-01-06    13   0.6  -3.8
    ##  7 2017-01-07    81  -3.2  -6.6
    ##  8 2017-01-08     0  -3.8  -8.8
    ##  9 2017-01-09     0  -4.9  -9.9
    ## 10 2017-01-10     0   7.8  -6  
    ## # … with 355 more rows
    ## 
    ## [[2]]
    ## # A tibble: 365 × 4
    ##    date        prcp  tmax  tmin
    ##    <date>     <dbl> <dbl> <dbl>
    ##  1 2017-01-01     0  26.7  16.7
    ##  2 2017-01-02     0  27.2  16.7
    ##  3 2017-01-03     0  27.8  17.2
    ##  4 2017-01-04     0  27.2  16.7
    ##  5 2017-01-05     0  27.8  16.7
    ##  6 2017-01-06     0  27.2  16.7
    ##  7 2017-01-07     0  27.2  16.7
    ##  8 2017-01-08     0  25.6  15  
    ##  9 2017-01-09     0  27.2  15.6
    ## 10 2017-01-10     0  28.3  17.2
    ## # … with 355 more rows
    ## 
    ## [[3]]
    ## # A tibble: 365 × 4
    ##    date        prcp  tmax  tmin
    ##    <date>     <dbl> <dbl> <dbl>
    ##  1 2017-01-01   432  -6.8 -10.7
    ##  2 2017-01-02    25 -10.5 -12.4
    ##  3 2017-01-03     0  -8.9 -15.9
    ##  4 2017-01-04     0  -9.9 -15.5
    ##  5 2017-01-05     0  -5.9 -14.2
    ##  6 2017-01-06     0  -4.4 -11.3
    ##  7 2017-01-07    51   0.6 -11.5
    ##  8 2017-01-08    76   2.3  -1.2
    ##  9 2017-01-09    51  -1.2  -7  
    ## 10 2017-01-10     0  -5   -14.2
    ## # … with 355 more rows
…
``` r
napoleon_df = tibble(
  urls = urls
)

napoleon_df %>% 
  mutate(reviews = map(urls, get_page_reviews)) %>% 
  select(reviews) %>% 
  unnest()
```

    ## Warning: `cols` is now required when using unnest().
    ## Please use `cols = c(reviews)`

    ## # A tibble: 50 × 3
    ##    title                                                 stars   text           
    ##    <chr>                                                 <chr>   <chr>          
    ##  1 it was                                                5.0 ou… "\n  mad good …
    ##  2 Fun!                                                  4.0 ou… "\n  Fun and e…
    ##  3 Vintage                                               5.0 ou… "\n  Easy to o…
    ##  4 too many commercials                                  1.0 ou… "\n  5 minutes…
    ##  5 this film is so good!                                 5.0 ou… "\n  VOTE FOR …
    ##  6 Good movie                                            5.0 ou… "\n  Weird sto…
    ##  7 I Just everyone to know this....                      5.0 ou… "\n  VOTE FOR …
    ##  8 the cobweb in his hair during the bike ramp scene lol 5.0 ou… "\n  5 stars f…
    ##  9 Best quirky movie ever                                5.0 ou… "\n  You all k…
    ## 10 Classic Film                                          5.0 ou… "\n  Had to or…
    ## # … with 40 more rows
Simulation

start with a for loop

``` r
output = vector("list", length = 100)

for (i in 1:100){
  output[[i]] = sim_mean_sd(30, 3, 4)
}

bind_rows(output)
```

    ## # A tibble: 100 × 2
    ##     mean    sd
    ##    <dbl> <dbl>
    ##  1  2.95  3.50
    ##  2  2.89  3.70
    ##  3  1.83  4.44
    ##  4  3.43  3.65
    ##  5  2.00  3.76
    ##  6  3.06  3.48
    ##  7  3.31  4.47
    ##  8  3.67  3.07
    ##  9  3.57  3.68
    ## 10  3.47  3.57
    ## # … with 90 more rows
…
